<mxfile host="app.diagrams.net" modified="2023-04-03T17:37:10.374Z" agent="Mozilla/5.0 (Windows NT 10.0; Win64; x64) AppleWebKit/537.36 (KHTML, like Gecko) Chrome/111.0.0.0 Safari/537.36" etag="2K2Yh0fXQtNUCtNINAS3" version="21.1.0" type="device">
  <diagram name="Seite-1" id="_fscTdBoJH3Xg4rsO2Po">
    <mxGraphModel dx="819" dy="399" grid="1" gridSize="10" guides="1" tooltips="1" connect="1" arrows="1" fold="1" page="1" pageScale="1" pageWidth="827" pageHeight="1169" math="0" shadow="0">
      <root>
        <mxCell id="0" />
        <mxCell id="1" parent="0" />
        <mxCell id="9cOOr3YFyiYpfYCFY26R-1" value="Cumuluskunde" style="whiteSpace=wrap;html=1;align=center;" vertex="1" parent="1">
          <mxGeometry x="340" y="170" width="100" height="40" as="geometry" />
        </mxCell>
        <mxCell id="9cOOr3YFyiYpfYCFY26R-3" style="rounded=0;orthogonalLoop=1;jettySize=auto;html=1;entryX=0.5;entryY=0;entryDx=0;entryDy=0;strokeColor=default;endArrow=none;endFill=0;" edge="1" parent="1" source="9cOOr3YFyiYpfYCFY26R-2" target="9cOOr3YFyiYpfYCFY26R-1">
          <mxGeometry relative="1" as="geometry" />
        </mxCell>
        <mxCell id="9cOOr3YFyiYpfYCFY26R-2" value="PK_CumuluskundeId" style="ellipse;whiteSpace=wrap;html=1;align=center;fontStyle=4;" vertex="1" parent="1">
          <mxGeometry x="175" y="120" width="140" height="30" as="geometry" />
        </mxCell>
        <mxCell id="9cOOr3YFyiYpfYCFY26R-7" style="rounded=0;orthogonalLoop=1;jettySize=auto;html=1;endArrow=none;endFill=0;entryX=0.5;entryY=0;entryDx=0;entryDy=0;" edge="1" parent="1" source="9cOOr3YFyiYpfYCFY26R-4" target="9cOOr3YFyiYpfYCFY26R-1">
          <mxGeometry relative="1" as="geometry" />
        </mxCell>
        <mxCell id="9cOOr3YFyiYpfYCFY26R-4" value="Name" style="ellipse;whiteSpace=wrap;html=1;align=center;" vertex="1" parent="1">
          <mxGeometry x="304" y="100" width="80" height="20" as="geometry" />
        </mxCell>
        <mxCell id="9cOOr3YFyiYpfYCFY26R-8" style="rounded=0;orthogonalLoop=1;jettySize=auto;html=1;endArrow=none;endFill=0;entryX=0.5;entryY=0;entryDx=0;entryDy=0;" edge="1" parent="1" source="9cOOr3YFyiYpfYCFY26R-5" target="9cOOr3YFyiYpfYCFY26R-1">
          <mxGeometry relative="1" as="geometry" />
        </mxCell>
        <mxCell id="9cOOr3YFyiYpfYCFY26R-5" value="Vorname" style="ellipse;whiteSpace=wrap;html=1;align=center;" vertex="1" parent="1">
          <mxGeometry x="400" y="110" width="80" height="20" as="geometry" />
        </mxCell>
        <mxCell id="9cOOr3YFyiYpfYCFY26R-9" style="rounded=0;orthogonalLoop=1;jettySize=auto;html=1;entryX=0.5;entryY=0;entryDx=0;entryDy=0;endArrow=none;endFill=0;" edge="1" parent="1" source="9cOOr3YFyiYpfYCFY26R-6" target="9cOOr3YFyiYpfYCFY26R-1">
          <mxGeometry relative="1" as="geometry" />
        </mxCell>
        <mxCell id="9cOOr3YFyiYpfYCFY26R-6" value="Cumulusnummer" style="ellipse;whiteSpace=wrap;html=1;align=center;" vertex="1" parent="1">
          <mxGeometry x="470" y="140" width="100" height="20" as="geometry" />
        </mxCell>
        <mxCell id="9cOOr3YFyiYpfYCFY26R-14" style="rounded=0;orthogonalLoop=1;jettySize=auto;html=1;endArrow=none;endFill=0;" edge="1" parent="1" source="9cOOr3YFyiYpfYCFY26R-10" target="9cOOr3YFyiYpfYCFY26R-12">
          <mxGeometry relative="1" as="geometry" />
        </mxCell>
        <mxCell id="9cOOr3YFyiYpfYCFY26R-15" value="mc" style="edgeLabel;html=1;align=center;verticalAlign=middle;resizable=0;points=[];" vertex="1" connectable="0" parent="9cOOr3YFyiYpfYCFY26R-14">
          <mxGeometry x="-0.48" y="-9" relative="1" as="geometry">
            <mxPoint as="offset" />
          </mxGeometry>
        </mxCell>
        <mxCell id="9cOOr3YFyiYpfYCFY26R-10" value="Kassabon" style="whiteSpace=wrap;html=1;align=center;" vertex="1" parent="1">
          <mxGeometry x="340" y="310" width="100" height="40" as="geometry" />
        </mxCell>
        <mxCell id="9cOOr3YFyiYpfYCFY26R-13" style="edgeStyle=orthogonalEdgeStyle;rounded=0;orthogonalLoop=1;jettySize=auto;html=1;entryX=0.5;entryY=1;entryDx=0;entryDy=0;endArrow=none;endFill=0;" edge="1" parent="1" source="9cOOr3YFyiYpfYCFY26R-12" target="9cOOr3YFyiYpfYCFY26R-1">
          <mxGeometry relative="1" as="geometry" />
        </mxCell>
        <mxCell id="9cOOr3YFyiYpfYCFY26R-12" value="gehört" style="shape=rhombus;perimeter=rhombusPerimeter;whiteSpace=wrap;html=1;align=center;" vertex="1" parent="1">
          <mxGeometry x="355" y="243" width="70" height="30" as="geometry" />
        </mxCell>
        <mxCell id="9cOOr3YFyiYpfYCFY26R-16" value="c" style="text;html=1;align=center;verticalAlign=middle;resizable=0;points=[];autosize=1;strokeColor=none;fillColor=none;" vertex="1" parent="1">
          <mxGeometry x="384" y="200" width="30" height="30" as="geometry" />
        </mxCell>
        <mxCell id="9cOOr3YFyiYpfYCFY26R-18" style="rounded=0;orthogonalLoop=1;jettySize=auto;html=1;endArrow=none;endFill=0;" edge="1" parent="1" source="9cOOr3YFyiYpfYCFY26R-17" target="9cOOr3YFyiYpfYCFY26R-10">
          <mxGeometry relative="1" as="geometry" />
        </mxCell>
        <mxCell id="9cOOr3YFyiYpfYCFY26R-17" value="PK_KassabonId" style="ellipse;whiteSpace=wrap;html=1;align=center;fontStyle=4;" vertex="1" parent="1">
          <mxGeometry x="265" y="375" width="100" height="30" as="geometry" />
        </mxCell>
        <mxCell id="9cOOr3YFyiYpfYCFY26R-19" value="FK_CumuluskundeId" style="ellipse;whiteSpace=wrap;html=1;align=center;" vertex="1" parent="1">
          <mxGeometry x="521.25" y="360" width="158.75" height="20" as="geometry" />
        </mxCell>
        <mxCell id="9cOOr3YFyiYpfYCFY26R-20" style="rounded=0;orthogonalLoop=1;jettySize=auto;html=1;endArrow=none;endFill=0;exitX=0;exitY=0.5;exitDx=0;exitDy=0;entryX=1;entryY=0.5;entryDx=0;entryDy=0;" edge="1" parent="1" source="9cOOr3YFyiYpfYCFY26R-19" target="9cOOr3YFyiYpfYCFY26R-10">
          <mxGeometry relative="1" as="geometry">
            <mxPoint x="346" y="401" as="sourcePoint" />
            <mxPoint x="520" y="340" as="targetPoint" />
          </mxGeometry>
        </mxCell>
        <mxCell id="9cOOr3YFyiYpfYCFY26R-22" value="Verkaufsdetail" style="whiteSpace=wrap;html=1;align=center;" vertex="1" parent="1">
          <mxGeometry x="90" y="310" width="100" height="40" as="geometry" />
        </mxCell>
        <mxCell id="9cOOr3YFyiYpfYCFY26R-23" style="rounded=0;orthogonalLoop=1;jettySize=auto;html=1;endArrow=none;endFill=0;entryX=0.5;entryY=0;entryDx=0;entryDy=0;" edge="1" parent="1" source="9cOOr3YFyiYpfYCFY26R-24" target="9cOOr3YFyiYpfYCFY26R-22">
          <mxGeometry relative="1" as="geometry" />
        </mxCell>
        <mxCell id="9cOOr3YFyiYpfYCFY26R-24" value="PK_VerkaufsdetailId" style="ellipse;whiteSpace=wrap;html=1;align=center;fontStyle=4;" vertex="1" parent="1">
          <mxGeometry y="250" width="120" height="33" as="geometry" />
        </mxCell>
        <mxCell id="9cOOr3YFyiYpfYCFY26R-25" value="FK_KassabonId" style="ellipse;whiteSpace=wrap;html=1;align=center;" vertex="1" parent="1">
          <mxGeometry x="100" y="230" width="100" height="23" as="geometry" />
        </mxCell>
        <mxCell id="9cOOr3YFyiYpfYCFY26R-26" style="rounded=0;orthogonalLoop=1;jettySize=auto;html=1;endArrow=none;endFill=0;exitX=0.5;exitY=1;exitDx=0;exitDy=0;entryX=0.5;entryY=0;entryDx=0;entryDy=0;" edge="1" parent="1" source="9cOOr3YFyiYpfYCFY26R-25" target="9cOOr3YFyiYpfYCFY26R-22">
          <mxGeometry relative="1" as="geometry">
            <mxPoint x="170" y="280" as="sourcePoint" />
            <mxPoint x="150" y="320" as="targetPoint" />
          </mxGeometry>
        </mxCell>
        <mxCell id="9cOOr3YFyiYpfYCFY26R-28" value="Artikel" style="whiteSpace=wrap;html=1;align=center;" vertex="1" parent="1">
          <mxGeometry x="90" y="480" width="100" height="40" as="geometry" />
        </mxCell>
        <mxCell id="9cOOr3YFyiYpfYCFY26R-29" style="rounded=0;orthogonalLoop=1;jettySize=auto;html=1;endArrow=none;endFill=0;" edge="1" parent="1" source="9cOOr3YFyiYpfYCFY26R-30" target="9cOOr3YFyiYpfYCFY26R-28">
          <mxGeometry relative="1" as="geometry" />
        </mxCell>
        <mxCell id="9cOOr3YFyiYpfYCFY26R-30" value="PK_ArtikelId" style="ellipse;whiteSpace=wrap;html=1;align=center;fontStyle=4;" vertex="1" parent="1">
          <mxGeometry y="545" width="110" height="20" as="geometry" />
        </mxCell>
        <mxCell id="9cOOr3YFyiYpfYCFY26R-31" value="Artikelname" style="ellipse;whiteSpace=wrap;html=1;align=center;" vertex="1" parent="1">
          <mxGeometry x="200" y="450" width="100" height="20" as="geometry" />
        </mxCell>
        <mxCell id="9cOOr3YFyiYpfYCFY26R-32" style="rounded=0;orthogonalLoop=1;jettySize=auto;html=1;endArrow=none;endFill=0;exitX=0.5;exitY=1;exitDx=0;exitDy=0;entryX=1;entryY=0.5;entryDx=0;entryDy=0;" edge="1" parent="1" source="9cOOr3YFyiYpfYCFY26R-31" target="9cOOr3YFyiYpfYCFY26R-28">
          <mxGeometry relative="1" as="geometry">
            <mxPoint x="170" y="437" as="sourcePoint" />
            <mxPoint x="150" y="477" as="targetPoint" />
          </mxGeometry>
        </mxCell>
        <mxCell id="9cOOr3YFyiYpfYCFY26R-33" value="Preis" style="ellipse;whiteSpace=wrap;html=1;align=center;" vertex="1" parent="1">
          <mxGeometry x="200" y="520" width="100" height="20" as="geometry" />
        </mxCell>
        <mxCell id="9cOOr3YFyiYpfYCFY26R-34" style="rounded=0;orthogonalLoop=1;jettySize=auto;html=1;endArrow=none;endFill=0;exitX=0.5;exitY=0;exitDx=0;exitDy=0;entryX=1;entryY=0.5;entryDx=0;entryDy=0;" edge="1" parent="1" source="9cOOr3YFyiYpfYCFY26R-33" target="9cOOr3YFyiYpfYCFY26R-28">
          <mxGeometry relative="1" as="geometry">
            <mxPoint x="240" y="477" as="sourcePoint" />
            <mxPoint x="210" y="520" as="targetPoint" />
          </mxGeometry>
        </mxCell>
        <mxCell id="9cOOr3YFyiYpfYCFY26R-36" style="rounded=0;orthogonalLoop=1;jettySize=auto;html=1;entryX=0;entryY=0.5;entryDx=0;entryDy=0;exitX=1;exitY=0.5;exitDx=0;exitDy=0;endArrow=none;endFill=0;" edge="1" parent="1" source="9cOOr3YFyiYpfYCFY26R-35" target="9cOOr3YFyiYpfYCFY26R-10">
          <mxGeometry relative="1" as="geometry">
            <mxPoint x="330" y="335" as="targetPoint" />
          </mxGeometry>
        </mxCell>
        <mxCell id="9cOOr3YFyiYpfYCFY26R-37" style="rounded=0;orthogonalLoop=1;jettySize=auto;html=1;entryX=1;entryY=0.5;entryDx=0;entryDy=0;endArrow=none;endFill=0;exitX=0;exitY=0.5;exitDx=0;exitDy=0;" edge="1" parent="1" source="9cOOr3YFyiYpfYCFY26R-35" target="9cOOr3YFyiYpfYCFY26R-22">
          <mxGeometry relative="1" as="geometry" />
        </mxCell>
        <mxCell id="9cOOr3YFyiYpfYCFY26R-35" value="hat" style="shape=rhombus;perimeter=rhombusPerimeter;whiteSpace=wrap;html=1;align=center;" vertex="1" parent="1">
          <mxGeometry x="230" y="315" width="70" height="30" as="geometry" />
        </mxCell>
        <mxCell id="9cOOr3YFyiYpfYCFY26R-39" style="rounded=0;orthogonalLoop=1;jettySize=auto;html=1;entryX=0.5;entryY=1;entryDx=0;entryDy=0;endArrow=none;endFill=0;" edge="1" parent="1" source="9cOOr3YFyiYpfYCFY26R-38" target="9cOOr3YFyiYpfYCFY26R-22">
          <mxGeometry relative="1" as="geometry" />
        </mxCell>
        <mxCell id="9cOOr3YFyiYpfYCFY26R-40" style="rounded=0;orthogonalLoop=1;jettySize=auto;html=1;entryX=0.5;entryY=0;entryDx=0;entryDy=0;endArrow=none;endFill=0;" edge="1" parent="1" source="9cOOr3YFyiYpfYCFY26R-38" target="9cOOr3YFyiYpfYCFY26R-28">
          <mxGeometry relative="1" as="geometry">
            <mxPoint x="140" y="480.0000000000001" as="targetPoint" />
          </mxGeometry>
        </mxCell>
        <mxCell id="9cOOr3YFyiYpfYCFY26R-38" value="besteht aus" style="shape=rhombus;perimeter=rhombusPerimeter;whiteSpace=wrap;html=1;align=center;" vertex="1" parent="1">
          <mxGeometry x="90" y="400" width="100" height="30" as="geometry" />
        </mxCell>
        <mxCell id="9cOOr3YFyiYpfYCFY26R-41" value="mc" style="text;html=1;align=center;verticalAlign=middle;resizable=0;points=[];autosize=1;strokeColor=none;fillColor=none;" vertex="1" parent="1">
          <mxGeometry x="130" y="345" width="40" height="30" as="geometry" />
        </mxCell>
        <mxCell id="9cOOr3YFyiYpfYCFY26R-42" value="1" style="text;html=1;align=center;verticalAlign=middle;resizable=0;points=[];autosize=1;strokeColor=none;fillColor=none;" vertex="1" parent="1">
          <mxGeometry x="135" y="455" width="30" height="30" as="geometry" />
        </mxCell>
        <mxCell id="9cOOr3YFyiYpfYCFY26R-43" value="mc" style="text;html=1;align=center;verticalAlign=middle;resizable=0;points=[];autosize=1;strokeColor=none;fillColor=none;" vertex="1" parent="1">
          <mxGeometry x="180" y="305" width="40" height="30" as="geometry" />
        </mxCell>
        <mxCell id="9cOOr3YFyiYpfYCFY26R-44" value="1" style="text;html=1;align=center;verticalAlign=middle;resizable=0;points=[];autosize=1;strokeColor=none;fillColor=none;" vertex="1" parent="1">
          <mxGeometry x="315" y="305" width="30" height="30" as="geometry" />
        </mxCell>
        <mxCell id="9cOOr3YFyiYpfYCFY26R-45" value="Filiale" style="whiteSpace=wrap;html=1;align=center;" vertex="1" parent="1">
          <mxGeometry x="340" y="480" width="100" height="40" as="geometry" />
        </mxCell>
        <mxCell id="9cOOr3YFyiYpfYCFY26R-46" style="rounded=0;orthogonalLoop=1;jettySize=auto;html=1;endArrow=none;endFill=0;entryX=1;entryY=0.5;entryDx=0;entryDy=0;" edge="1" parent="1" source="9cOOr3YFyiYpfYCFY26R-47" target="9cOOr3YFyiYpfYCFY26R-45">
          <mxGeometry relative="1" as="geometry" />
        </mxCell>
        <mxCell id="9cOOr3YFyiYpfYCFY26R-47" value="PK_FilialeId" style="ellipse;whiteSpace=wrap;html=1;align=center;fontStyle=4;" vertex="1" parent="1">
          <mxGeometry x="432.5" y="540" width="110" height="20" as="geometry" />
        </mxCell>
        <mxCell id="9cOOr3YFyiYpfYCFY26R-49" value="Filialname" style="ellipse;whiteSpace=wrap;html=1;align=center;" vertex="1" parent="1">
          <mxGeometry x="480" y="490" width="100" height="20" as="geometry" />
        </mxCell>
        <mxCell id="9cOOr3YFyiYpfYCFY26R-50" style="rounded=0;orthogonalLoop=1;jettySize=auto;html=1;endArrow=none;endFill=0;exitX=0;exitY=0.5;exitDx=0;exitDy=0;entryX=1;entryY=0.5;entryDx=0;entryDy=0;" edge="1" parent="1" source="9cOOr3YFyiYpfYCFY26R-49" target="9cOOr3YFyiYpfYCFY26R-45">
          <mxGeometry relative="1" as="geometry">
            <mxPoint x="500" y="487" as="sourcePoint" />
            <mxPoint x="470" y="530" as="targetPoint" />
          </mxGeometry>
        </mxCell>
        <mxCell id="9cOOr3YFyiYpfYCFY26R-55" style="rounded=0;orthogonalLoop=1;jettySize=auto;html=1;endArrow=none;endFill=0;" edge="1" parent="1" source="9cOOr3YFyiYpfYCFY26R-52" target="9cOOr3YFyiYpfYCFY26R-10">
          <mxGeometry relative="1" as="geometry" />
        </mxCell>
        <mxCell id="9cOOr3YFyiYpfYCFY26R-56" style="rounded=0;orthogonalLoop=1;jettySize=auto;html=1;entryX=0.5;entryY=0;entryDx=0;entryDy=0;endArrow=none;endFill=0;" edge="1" parent="1" source="9cOOr3YFyiYpfYCFY26R-52" target="9cOOr3YFyiYpfYCFY26R-45">
          <mxGeometry relative="1" as="geometry" />
        </mxCell>
        <mxCell id="9cOOr3YFyiYpfYCFY26R-52" value="gehört" style="shape=rhombus;perimeter=rhombusPerimeter;whiteSpace=wrap;html=1;align=center;" vertex="1" parent="1">
          <mxGeometry x="355" y="410" width="70" height="30" as="geometry" />
        </mxCell>
        <mxCell id="9cOOr3YFyiYpfYCFY26R-54" style="rounded=0;orthogonalLoop=1;jettySize=auto;html=1;entryX=1;entryY=0.5;entryDx=0;entryDy=0;endArrow=none;endFill=0;" edge="1" parent="1" source="9cOOr3YFyiYpfYCFY26R-53" target="9cOOr3YFyiYpfYCFY26R-10">
          <mxGeometry relative="1" as="geometry" />
        </mxCell>
        <mxCell id="9cOOr3YFyiYpfYCFY26R-53" value="Kassennummer" style="ellipse;whiteSpace=wrap;html=1;align=center;" vertex="1" parent="1">
          <mxGeometry x="432.5" y="240" width="125" height="30" as="geometry" />
        </mxCell>
        <mxCell id="9cOOr3YFyiYpfYCFY26R-62" style="rounded=0;orthogonalLoop=1;jettySize=auto;html=1;endArrow=none;endFill=0;entryX=0;entryY=0.5;entryDx=0;entryDy=0;" edge="1" parent="1" source="9cOOr3YFyiYpfYCFY26R-57" target="9cOOr3YFyiYpfYCFY26R-66">
          <mxGeometry relative="1" as="geometry">
            <mxPoint x="340" y="580" as="targetPoint" />
          </mxGeometry>
        </mxCell>
        <mxCell id="9cOOr3YFyiYpfYCFY26R-63" style="rounded=0;orthogonalLoop=1;jettySize=auto;html=1;endArrow=none;endFill=0;entryX=1;entryY=0.5;entryDx=0;entryDy=0;" edge="1" parent="1" source="9cOOr3YFyiYpfYCFY26R-57" target="9cOOr3YFyiYpfYCFY26R-67">
          <mxGeometry relative="1" as="geometry">
            <mxPoint x="190" y="570" as="targetPoint" />
          </mxGeometry>
        </mxCell>
        <mxCell id="9cOOr3YFyiYpfYCFY26R-57" value="Sortiment" style="whiteSpace=wrap;html=1;align=center;" vertex="1" parent="1">
          <mxGeometry x="220" y="565" width="100" height="40" as="geometry" />
        </mxCell>
        <mxCell id="9cOOr3YFyiYpfYCFY26R-60" style="rounded=0;orthogonalLoop=1;jettySize=auto;html=1;entryX=0.5;entryY=1;entryDx=0;entryDy=0;endArrow=none;endFill=0;" edge="1" parent="1" source="9cOOr3YFyiYpfYCFY26R-58" target="9cOOr3YFyiYpfYCFY26R-57">
          <mxGeometry relative="1" as="geometry" />
        </mxCell>
        <mxCell id="9cOOr3YFyiYpfYCFY26R-58" value="FK_ArtikelId" style="ellipse;whiteSpace=wrap;html=1;align=center;" vertex="1" parent="1">
          <mxGeometry x="180" y="650" width="100" height="20" as="geometry" />
        </mxCell>
        <mxCell id="9cOOr3YFyiYpfYCFY26R-61" style="rounded=0;orthogonalLoop=1;jettySize=auto;html=1;endArrow=none;endFill=0;entryX=0.5;entryY=1;entryDx=0;entryDy=0;" edge="1" parent="1" source="9cOOr3YFyiYpfYCFY26R-59" target="9cOOr3YFyiYpfYCFY26R-57">
          <mxGeometry relative="1" as="geometry">
            <mxPoint x="290" y="610" as="targetPoint" />
          </mxGeometry>
        </mxCell>
        <mxCell id="9cOOr3YFyiYpfYCFY26R-59" value="FK_FilialeId" style="ellipse;whiteSpace=wrap;html=1;align=center;" vertex="1" parent="1">
          <mxGeometry x="287.5" y="650" width="85" height="20" as="geometry" />
        </mxCell>
        <mxCell id="9cOOr3YFyiYpfYCFY26R-64" value="mc" style="text;html=1;align=center;verticalAlign=middle;resizable=0;points=[];autosize=1;strokeColor=none;fillColor=none;" vertex="1" parent="1">
          <mxGeometry x="380" y="345" width="40" height="30" as="geometry" />
        </mxCell>
        <mxCell id="9cOOr3YFyiYpfYCFY26R-65" value="1" style="text;html=1;align=center;verticalAlign=middle;resizable=0;points=[];autosize=1;strokeColor=none;fillColor=none;" vertex="1" parent="1">
          <mxGeometry x="385" y="455" width="30" height="30" as="geometry" />
        </mxCell>
        <mxCell id="9cOOr3YFyiYpfYCFY26R-68" style="edgeStyle=orthogonalEdgeStyle;rounded=0;orthogonalLoop=1;jettySize=auto;html=1;entryX=0.5;entryY=1;entryDx=0;entryDy=0;endArrow=none;endFill=0;" edge="1" parent="1" source="9cOOr3YFyiYpfYCFY26R-66" target="9cOOr3YFyiYpfYCFY26R-45">
          <mxGeometry relative="1" as="geometry" />
        </mxCell>
        <mxCell id="9cOOr3YFyiYpfYCFY26R-66" value="besteht aus" style="shape=rhombus;perimeter=rhombusPerimeter;whiteSpace=wrap;html=1;align=center;" vertex="1" parent="1">
          <mxGeometry x="342.5" y="572.5" width="95" height="25" as="geometry" />
        </mxCell>
        <mxCell id="9cOOr3YFyiYpfYCFY26R-69" style="edgeStyle=orthogonalEdgeStyle;rounded=0;orthogonalLoop=1;jettySize=auto;html=1;entryX=0.5;entryY=1;entryDx=0;entryDy=0;endArrow=none;endFill=0;" edge="1" parent="1" source="9cOOr3YFyiYpfYCFY26R-67" target="9cOOr3YFyiYpfYCFY26R-28">
          <mxGeometry relative="1" as="geometry" />
        </mxCell>
        <mxCell id="9cOOr3YFyiYpfYCFY26R-67" value="aufgelistet in" style="shape=rhombus;perimeter=rhombusPerimeter;whiteSpace=wrap;html=1;align=center;" vertex="1" parent="1">
          <mxGeometry x="92.5" y="570" width="95" height="30" as="geometry" />
        </mxCell>
        <mxCell id="9cOOr3YFyiYpfYCFY26R-71" style="rounded=0;orthogonalLoop=1;jettySize=auto;html=1;endArrow=none;endFill=0;" edge="1" parent="1" source="9cOOr3YFyiYpfYCFY26R-70">
          <mxGeometry relative="1" as="geometry">
            <mxPoint x="439.9999999999998" y="330.0000000000001" as="targetPoint" />
          </mxGeometry>
        </mxCell>
        <mxCell id="9cOOr3YFyiYpfYCFY26R-70" value="Transaktionsnummer" style="ellipse;whiteSpace=wrap;html=1;align=center;" vertex="1" parent="1">
          <mxGeometry x="531.25" y="320" width="125" height="30" as="geometry" />
        </mxCell>
        <mxCell id="9cOOr3YFyiYpfYCFY26R-73" value="1" style="text;html=1;align=center;verticalAlign=middle;resizable=0;points=[];autosize=1;strokeColor=none;fillColor=none;" vertex="1" parent="1">
          <mxGeometry x="385" y="515" width="30" height="30" as="geometry" />
        </mxCell>
        <mxCell id="9cOOr3YFyiYpfYCFY26R-74" value="mc" style="text;html=1;align=center;verticalAlign=middle;resizable=0;points=[];autosize=1;strokeColor=none;fillColor=none;" vertex="1" parent="1">
          <mxGeometry x="310" y="575" width="40" height="30" as="geometry" />
        </mxCell>
        <mxCell id="9cOOr3YFyiYpfYCFY26R-75" value="1" style="text;html=1;align=center;verticalAlign=middle;resizable=0;points=[];autosize=1;strokeColor=none;fillColor=none;" vertex="1" parent="1">
          <mxGeometry x="135" y="515" width="30" height="30" as="geometry" />
        </mxCell>
        <mxCell id="9cOOr3YFyiYpfYCFY26R-78" value="mc" style="text;html=1;align=center;verticalAlign=middle;resizable=0;points=[];autosize=1;strokeColor=none;fillColor=none;" vertex="1" parent="1">
          <mxGeometry x="190" y="575" width="40" height="30" as="geometry" />
        </mxCell>
        <mxCell id="9cOOr3YFyiYpfYCFY26R-80" style="rounded=0;orthogonalLoop=1;jettySize=auto;html=1;entryX=1;entryY=0.5;entryDx=0;entryDy=0;endArrow=none;endFill=0;" edge="1" parent="1" source="9cOOr3YFyiYpfYCFY26R-79" target="9cOOr3YFyiYpfYCFY26R-10">
          <mxGeometry relative="1" as="geometry" />
        </mxCell>
        <mxCell id="9cOOr3YFyiYpfYCFY26R-79" value="FK_FilialeId" style="ellipse;whiteSpace=wrap;html=1;align=center;" vertex="1" parent="1">
          <mxGeometry x="458.75" y="390" width="82.5" height="20" as="geometry" />
        </mxCell>
        <mxCell id="9cOOr3YFyiYpfYCFY26R-83" style="rounded=0;orthogonalLoop=1;jettySize=auto;html=1;entryX=0.5;entryY=0;entryDx=0;entryDy=0;endArrow=none;endFill=0;" edge="1" parent="1" source="9cOOr3YFyiYpfYCFY26R-82" target="9cOOr3YFyiYpfYCFY26R-22">
          <mxGeometry relative="1" as="geometry" />
        </mxCell>
        <mxCell id="9cOOr3YFyiYpfYCFY26R-82" value="Menge" style="ellipse;whiteSpace=wrap;html=1;align=center;" vertex="1" parent="1">
          <mxGeometry x="180" y="260" width="60" height="23" as="geometry" />
        </mxCell>
        <mxCell id="9cOOr3YFyiYpfYCFY26R-86" style="rounded=0;orthogonalLoop=1;jettySize=auto;html=1;endArrow=none;endFill=0;entryX=1;entryY=0.5;entryDx=0;entryDy=0;" edge="1" parent="1" source="9cOOr3YFyiYpfYCFY26R-85" target="9cOOr3YFyiYpfYCFY26R-10">
          <mxGeometry relative="1" as="geometry">
            <mxPoint x="480" y="320" as="targetPoint" />
          </mxGeometry>
        </mxCell>
        <mxCell id="9cOOr3YFyiYpfYCFY26R-85" value="Datum/Zeit" style="ellipse;whiteSpace=wrap;html=1;align=center;" vertex="1" parent="1">
          <mxGeometry x="531.25" y="273" width="125" height="30" as="geometry" />
        </mxCell>
      </root>
    </mxGraphModel>
  </diagram>
</mxfile>
